{
  "result":"1", 
  "message": [
    {
      "day": "14/04/2018",
      "activities": [
        {
          "hourIn": "22:00",
          "hourOut": "00:00",
          "name": "Paseo al faro",
          "image": "",
          "level": "Nivel inicial",
          "place": "Punto de encuentro: recepción",
          "description":"Lorem ipsum dolor sit amet, consectetur adipisicing elit. Facere sit, provident id, cupiditate atque possimus, ducimus quas dolorum ipsa architecto neque aliquam quam soluta placeat voluptas nisi quos. Necessitatibus, odio!"
        },
        {
          "hourIn": "12:00",
          "hourOut": "12:50",
          "name": "SHA Yoga",
          "image": "assets/images/respiracion.jpg",
          "level": "Nivel medio",
          "place": "Clases - Estudio 64",
          "description":"Lorem ipsum dolor sit amet, consectetur adipisicing elit. Consequuntur labore quo quos temporibus rerum saepe. Nobis eveniet voluptates velit beatae explicabo libero doloremque repudiandae a nam dolores sed deserunt, repellat!"
        },
        {
          "hourIn": "16:00",
          "hourOut": "17:50",
          "name": "Clase de cocina saludable: Cocina estacional",
          "image": "assets/images/cocina.jpg",
          "level": "",
          "place": "Actividad con coste adicional. Por favor, inscríbase en la recepción",
          "description":"Lorem ipsum dolor sit amet, consectetur adipisicing elit. Voluptate aspernatur placeat inventore voluptas eum, quisquam soluta veritatis iste, doloremque quia neque ab animi accusamus maxime praesentium nobis quas, blanditiis odit!"
        }
      ]
    },
    {
      "day": "02/04/2018",
      "activities": [
        {
          "hourIn": "07:30",
          "hourOut": "08:45",
          "name": "Paseo al faro",
          "image": "assets/images/respiracion.jpg",
          "level": "Nivel inicial",
          "place": "Punto de encuentro: recepción"
        },
        {
          "hourIn": "16:00",
          "hourOut": "17:50",
          "name": "Clase de cocina saludable: Cocina estacional",
          "image": "assets/images/cocina.jpg",
          "level": "",
          "place": "Actividad con coste adicional. Por favor, inscríbase en la recepción"
        },
        {
          "hourIn": "07:30",
          "hourOut": "08:45",
          "name": "Paseo al faro",
          "image": "assets/images/respiracion.jpg",
          "level": "Nivel inicial",
          "place": "Punto de encuentro: recepción"
        },
        {
          "hourIn": "16:00",
          "hourOut": "17:50",
          "name": "Clase de cocina saludable: Cocina estacional",
          "image": "assets/images/cocina.jpg",
          "level": "",
          "place": "Actividad con coste adicional. Por favor, inscríbase en la recepción"
        },
        {
          "hourIn": "07:30",
          "hourOut": "08:45",
          "name": "Paseo al faro",
          "image": "assets/images/respiracion.jpg",
          "level": "Nivel inicial",
          "place": "Punto de encuentro: recepción"
        },
        {
          "hourIn": "16:00",
          "hourOut": "17:50",
          "name": "Clase de cocina saludable: Cocina estacional",
          "image": "assets/images/cocina.jpg",
          "level": "",
          "place": "Actividad con coste adicional. Por favor, inscríbase en la recepción"
        }
      ]
    },
    {
      "day": "03/04/2017",
      "activities": [
        {
          "hourIn": "16:00",
          "hourOut": "17:50",
          "name": "Clase de cocina saludable: Cocina estacional",
          "image": "assets/images/cocina.jpg",
          "level": "",
          "place": "Actividad con coste adicional. Por favor, inscríbase en la recepción"
        }
      ]
    }
  ]
}